id,name,model_id:id,group_id:id,perm_read,perm_write,perm_create,perm_unlink
access_studying_course_user,studying.course.user,model_studying_course,group_course_user,1,0,0,0
access_studying_course_teacher,studying.course.teacher,model_studying_course,group_teacher_courses,1,1,1,1
access_course_participants_user,course.participants.user,model_course_participants,group_course_user,1,0,0,0
access_course.participants_teacher,course.participants.teacher,model_course_participants,group_teacher_courses,1,1,1,1

